flaskr.model.gateway.coverGateway module
========================================

.. automodule:: flaskr.model.gateway.coverGateway
   :members:
   :undoc-members:
   :show-inheritance:
   :private-members:
